{
  "errors": [
    {
      "message": "404: Not Found",
      "locations": [],
      "path": [
        "userBySsoId"
      ],
      "extensions": {
        "code": "INTERNAL_SERVER_ERROR",
        "response": {
          "url": "http://ego/api/users/userBySsoExternalId/abc123/org-id-0",
          "status": 404,
          "statusText": "Not Found",
          "body": {
            "type": "ErrorResponse",
            "error": "DOES_NOT_EXIST",
            "error_description": "No user found in with externalId 'abc123' in org 'org-id-0'"
          }
        }
      }
    }
  ],
  "data": {
    "userBySsoId": null
  }
}
