{
  "data": {
    "myOrg": {
      "groups": [
        {
          "id": "group-id-0",
          "name": "ABC101 Group"
        },
        {
          "id": "group-id-1",
          "name": "ABC102 Group"
        }
      ]
    }
  }
}
