{
  "data": {
    "myOrg": {
      "users": {
        "totalCount": 6,
        "nodes": [
          {
            "id": "user-id-0",
            "email": "first.last@example.edu",
            "firstName": "First",
            "lastName": "Last",
            "ssoId": null,
            "groupIds": [
              "group-id-0"
            ]
          },
          {
            "id": "user-id-1",
            "email": "first.last@example.edu",
            "firstName": "First",
            "lastName": "Last1",
            "ssoId": null,
            "groupIds": [
              "group-id-0"
            ]
          },
          {
            "id": "user-id-2",
            "email": "first.last@example.edu",
            "firstName": "First",
            "lastName": "Last2",
            "ssoId": null,
            "groupIds": [
              "group-id-0"
            ]
          },
          {
            "id": "user-id-3",
            "email": "first.last@example.edu",
            "firstName": "First",
            "lastName": "Last3",
            "ssoId": null,
            "groupIds": [
              "group-id-0"
            ]
          },
          {
            "id": "user-id-4",
            "email": "first.last@example.edu",
            "firstName": "First",
            "lastName": "Last4",
            "ssoId": null,
            "groupIds": [
              "group-id-0"
            ]
          }
        ],
        "pageInfo": {
          "endCursor": "MTAw",
          "hasNextPage": true
        }
      }
    }
  }
}
