{
  "errors": [
    {
      "message": "409: Conflict",
      "locations": [],
      "path": [
        "createUser"
      ],
      "extensions": {
        "code": "INTERNAL_SERVER_ERROR",
        "response": {
          "url": "http://ego/api/users/",
          "status": 409,
          "statusText": "Conflict",
          "body": {
            "type": "ErrorResponse",
            "error": "DATA_CONFLICT",
            "error_description": "An active User with email 'first1.last1@example.edu' already exists in this organization"
          }
        }
      }
    }
  ],
  "data": {
    "createUser": null
  }
}
