{
  "data": {
    "index_0": {
      "transactionId": "test.foo.1",
      "group": {
        "id": "group-id-99",
        "name": "Foo Group 1"
      }
    },
    "index_1": {
      "transactionId": "test.foo.2",
      "group": {
        "id": "group-id-100",
        "name": "Foo Group 2"
      }
    }
  }
}
